@startuml
'https://plantuml.com/sequence-diagram

class Client {
}

class ClientInterface {
    method()
}

Client --> ClientInterface

class Service {
}
note right
Vollständig implementiert,
passt nicht zu ClientInterface
end note
@enduml